<svg aria-hidden="true" style="position: absolute; width: 0; height: 0; overflow: hidden;" version="1.1" xmlns="http://www.w3.org/2000/svg" xmlns:xlink="http://www.w3.org/1999/xlink">
<defs>
<symbol id="wm_adnetwork" viewBox="0 0 50 32">
<title>adnetwork</title>
<path d="M27.221 20.156h-3.509c-0.177 0-0.32 0.143-0.32 0.32s0.143 0.32 0.32 0.32h3.509c0.177 0 0.32-0.143 0.32-0.32s-0.143-0.32-0.32-0.32zM27.221 21.641h-3.509c-0.177 0-0.32 0.143-0.32 0.32s0.143 0.32 0.32 0.32h3.509c0.177 0 0.32-0.143 0.32-0.32s-0.143-0.32-0.32-0.32zM29.553 26.49h-18.315c-0.177 0-0.32 0.143-0.32 0.32s0.143 0.32 0.32 0.32h18.313c0.177 0 0.32-0.143 0.32-0.32s-0.143-0.32-0.318-0.32zM21.099 15.639c-0.213 0-0.416 0.019-0.563 0.045v2.101c0.102 0.013 0.26 0.030 0.469 0.030 0.371 0 0.663-0.077 0.853-0.241 0.177-0.151 0.335-0.433 0.335-0.89 0-0.395-0.119-0.666-0.326-0.834-0.179-0.143-0.414-0.211-0.768-0.211zM21.137 17.427c-0.038 0-0.085 0-0.115-0.006v-1.389c0.034-0.009 0.081-0.013 0.149-0.013 0.307 0 0.514 0.222 0.514 0.668-0.002 0.529-0.228 0.745-0.548 0.74zM31.866 5.19c-3.292 0-5.963 1.818-5.963 4.062 0 1.216 0.787 2.308 2.031 3.053h-16.437c-0.177 0-0.32 0.143-0.32 0.32v12.122c0 0.177 0.143 0.32 0.32 0.32h17.798c0.177 0 0.32-0.143 0.32-0.32v-11.735c0.695 0.194 1.455 0.301 2.251 0.301 3.292 0 5.963-1.818 5.963-4.060 0-2.244-2.669-4.062-5.963-4.062zM28.975 24.427h-17.158v-11.484h15.983l-0.745 1.205 1.918-0.979v11.258zM33.594 11.147c-0.418 0.386-0.988 0.612-1.67 0.612-0.986 0-1.839-0.565-2.255-1.391-0.171-0.341-0.269-0.725-0.269-1.133s0.098-0.791 0.269-1.133c0.416-0.826 1.267-1.389 2.255-1.389 0.681 0 1.25 0.25 1.687 0.657l-0.723 0.723c-0.262-0.25-0.593-0.378-0.964-0.378-0.657 0-1.214 0.444-1.412 1.041-0.051 0.151-0.079 0.314-0.079 0.48s0.028 0.329 0.079 0.48c0.198 0.595 0.755 1.041 1.412 1.041 0.339 0 0.629-0.090 0.853-0.241 0.267-0.179 0.446-0.446 0.503-0.762h-1.357v-0.977h2.377c0.030 0.164 0.045 0.337 0.045 0.516 0.002 0.766-0.273 1.412-0.751 1.852zM12.986 14.502v4.465c0 0.177 0.143 0.32 0.32 0.32h14.182c0.177 0 0.32-0.143 0.32-0.32v-4.465c0-0.177-0.143-0.32-0.32-0.32h-14.182c-0.177 0-0.32 0.145-0.32 0.32zM13.626 14.822h13.542v3.825h-13.542v-3.825zM19.108 15.652l-0.565 2.144h0.493l0.117-0.499h0.493l0.124 0.499h0.506l-0.548-2.144h-0.619zM19.211 16.928l0.098-0.429c0.026-0.122 0.062-0.32 0.090-0.45h0.006c0.028 0.13 0.064 0.322 0.092 0.45l0.094 0.429h-0.38z"></path>
</symbol>
<symbol id="wm_affiliate" viewBox="0 0 50 32">
<title>affiliate</title>
<path d="M30.357 15.644c0.868 0 1.338-0.535 1.338-1.572v-2.103h-0.826v2.193c0 0.578-0.183 0.802-0.497 0.802-0.305 0-0.493-0.243-0.493-0.802v-2.193h-0.826v2.093c0 1.047 0.422 1.583 1.303 1.583zM35.849 14.381l0.109-2.417h-0.868l0.113 2.417h0.646zM32.99 15.59h0.826v-1.459l1.028-2.17h-0.907l-0.273 0.845c-0.085 0.258-0.156 0.489-0.215 0.727h-0.009c-0.070-0.25-0.141-0.474-0.226-0.723l-0.297-0.849h-0.924l0.996 2.202v1.427zM33.075 19.298c-0.028-0.041-0.060-0.079-0.092-0.113l-0.868-0.922c-0.213-0.226-0.514-0.356-0.826-0.356-0.29 0-0.565 0.109-0.777 0.307-0.23 0.218-0.35 0.512-0.354 0.809-0.305-0.017-0.608 0.096-0.832 0.307-0.23 0.218-0.35 0.512-0.354 0.809-0.305-0.015-0.606 0.096-0.832 0.307-0.139 0.13-0.239 0.29-0.294 0.461l-3.59-3.539v-12.335c0-0.177-0.143-0.32-0.32-0.32h-11.093c-0.177 0-0.32 0.143-0.32 0.32v21.47c0 0.177 0.143 0.32 0.32 0.32h11.093c0.177 0 0.32-0.143 0.32-0.32v-5.438l2.097 2.059-0.309-0.079c-0.186-0.075-0.375-0.113-0.565-0.113-0.595 0-1.067 0.38-1.173 0.947-0.194 1.039 0.757 1.44 1.824 1.719l3.070 0.706 1.052 0.582c0.017 0.011 0.036 0.017 0.053 0.023 0.489 0.162 1.222 0.375 1.954 0.375v0c0.785 0 1.44-0.247 1.956-0.747l1.052-1.122c0.017-0.019 0.034-0.041 0.045-0.062 0.762-1.357 0.352-2.95-0.239-3.588l-1.997-2.468zM13.163 5.353h10.453v2.938h-10.453v-2.938zM23.616 26.182h-10.453v-2.938h10.453v2.938zM23.616 22.605h-10.453v-13.675h10.453v7.872c-0.196-0.111-0.42-0.171-0.649-0.171-0.337 0-0.659 0.128-0.905 0.358-0.145 0.137-0.252 0.301-0.32 0.476-0.055-0.047-0.126-0.075-0.203-0.075h-6.302c-0.177 0-0.32 0.143-0.32 0.32v3.074c0 0.177 0.143 0.32 0.32 0.32h6.3c0.177 0 0.32-0.143 0.32-0.32v-2.125c0.045 0.070 0.096 0.139 0.158 0.203l1.6 1.57v2.172zM21.19 18.967v0.369h-0.602v0.461h0.672v0.375h-1.122v-1.978h1.084v0.375h-0.634v0.397h0.602zM19.893 19.793v0.382h-1.105v-1.978h0.45v1.596h0.655zM18.547 20.173h-0.465l-0.115-0.461h-0.454l-0.107 0.461h-0.454l0.523-1.978h0.57l0.503 1.978zM16.083 19.343c-0.311-0.143-0.474-0.337-0.474-0.574 0-0.335 0.256-0.599 0.715-0.599 0.19 0 0.335 0.041 0.431 0.087l-0.085 0.371c-0.073-0.036-0.19-0.081-0.348-0.081-0.175 0-0.258 0.085-0.258 0.181 0 0.111 0.081 0.164 0.322 0.273 0.316 0.141 0.446 0.335 0.446 0.58 0 0.361-0.273 0.617-0.753 0.617-0.201 0-0.397-0.051-0.489-0.102l0.077-0.38c0.105 0.053 0.271 0.102 0.431 0.102 0.19 0 0.282-0.081 0.282-0.201-0.002-0.117-0.092-0.183-0.297-0.275zM34.775 25.011l-1.013 1.082c-0.386 0.373-0.877 0.555-1.5 0.555v0c-0.627 0-1.28-0.188-1.726-0.335l-1.065-0.591c-0.026-0.015-0.053-0.026-0.083-0.032l-3.106-0.715c-1.459-0.382-1.395-0.727-1.348-0.979 0.049-0.265 0.252-0.425 0.544-0.425 0.111 0 0.228 0.026 0.341 0.073 0.015 0.006 0.030 0.011 0.047 0.015l1.478 0.373c0.141 0.036 0.286-0.028 0.358-0.154 0.070-0.126 0.049-0.284-0.055-0.386l-5.173-5.079c-0.256-0.273-0.243-0.704 0.030-0.962 0.126-0.119 0.292-0.186 0.465-0.186 0.19 0 0.367 0.077 0.503 0.222l0.143 0.141 4.474 4.412c0 0 0.002 0 0.002 0.002l0.314 0.333c0.062 0.066 0.147 0.1 0.233 0.1 0.079 0 0.158-0.030 0.22-0.087 0.128-0.122 0.134-0.324 0.013-0.452l-0.32-0.341c-0.177-0.198-0.166-0.508 0.028-0.689 0.19-0.179 0.51-0.171 0.691 0.015 0.004 0.004 0.009 0.006 0.011 0.009l0.25 0.265c0.062 0.066 0.147 0.1 0.233 0.1 0.079 0 0.158-0.030 0.22-0.087 0.128-0.122 0.134-0.324 0.013-0.452l-0.26-0.275c0 0 0 0 0 0-0.179-0.198-0.166-0.508 0.028-0.689 0.19-0.179 0.51-0.173 0.691 0.015 0.002 0.002 0.004 0.002 0.006 0.004l0.254 0.269c0.062 0.066 0.147 0.1 0.233 0.1 0.079 0 0.158-0.028 0.22-0.087 0.128-0.122 0.134-0.324 0.015-0.452l-0.26-0.275c0 0 0 0 0 0-0.181-0.201-0.171-0.506 0.028-0.691 0.192-0.181 0.516-0.171 0.698 0.021l0.87 0.924c0.013 0.015 0.026 0.030 0.047 0.060l2.022 2.496c0.004 0.006 0.011 0.013 0.015 0.017 0.369 0.401 0.806 1.66 0.175 2.822zM35.524 14.662c-0.267 0-0.474 0.203-0.474 0.493 0 0.273 0.188 0.489 0.474 0.489 0.292 0 0.474-0.207 0.474-0.489 0.002-0.292-0.196-0.493-0.474-0.493zM17.824 18.976c-0.026-0.117-0.060-0.294-0.083-0.414h-0.004c-0.026 0.119-0.060 0.303-0.081 0.414l-0.090 0.397h0.348l-0.090-0.397zM18.315 25.282c0.361 0 0.653-0.292 0.653-0.653s-0.292-0.653-0.653-0.653-0.653 0.292-0.653 0.653c0 0.361 0.292 0.653 0.653 0.653zM15.714 16.29c0.021 0.16 0.156 0.279 0.318 0.279h4.715c0.16 0 0.297-0.119 0.318-0.279l0.442-3.379c0.013-0.092-0.017-0.183-0.077-0.252s-0.149-0.109-0.241-0.109h-1.274l-0.134-1.436c-0.009-0.759-0.629-1.374-1.391-1.374s-1.382 0.614-1.391 1.374l-0.134 1.436h-1.274c-0.092 0-0.179 0.041-0.241 0.109s-0.090 0.162-0.077 0.252l0.442 3.379zM17.636 11.159c0-0.011 0.002-0.019 0.002-0.030 0-0.414 0.337-0.751 0.751-0.751s0.751 0.337 0.751 0.751c0 0.011 0 0.019 0.002 0.030l0.13 1.389h-1.764l0.128-1.389zM20.823 13.19l-0.358 2.739h-4.154l-0.358-2.739h4.87zM28.209 15.277c0.215-0.192 0.337-0.465 0.337-0.751 0-0.422-0.258-0.755-0.685-0.868v-0.015c0.39-0.16 0.559-0.465 0.559-0.779 0-0.305-0.141-0.555-0.375-0.704-0.267-0.173-0.591-0.22-1.024-0.22-0.38 0-0.766 0.032-0.981 0.075v3.558c0.183 0.028 0.454 0.051 0.806 0.051 0.702 0 1.114-0.128 1.363-0.348zM26.861 12.567c0.055-0.015 0.137-0.023 0.262-0.023 0.277 0 0.478 0.126 0.478 0.418 0 0.262-0.203 0.45-0.548 0.45h-0.192v-0.845zM26.861 14.010h0.211c0.301 0 0.61 0.126 0.61 0.493 0 0.352-0.277 0.501-0.591 0.501-0.098 0-0.169 0-0.23-0.015v-0.979z"></path>
</symbol>
<symbol id="wm_efo" viewBox="0 0 50 32">
<title>efo</title>
<path d="M35.942 5.107h-18.357c-0.352 0-0.64 0.288-0.64 0.64v9.143c-1.378 0.181-2.443 1.359-2.443 2.786 0 1.553 1.259 2.814 2.814 2.814 1.297 0 2.385-0.879 2.711-2.071h7.465l2.035 2.035c0.062 0.062 0.143 0.094 0.226 0.094 0.055 0 0.111-0.015 0.16-0.043 0.126-0.073 0.186-0.222 0.147-0.361l-0.474-1.724h6.355c0.352 0 0.64-0.288 0.64-0.64v-12.034c0-0.352-0.288-0.64-0.64-0.64zM29.412 17.777h-0.663l0.175 0.64 0.201 0.727-1.367-1.367h-7.633c0.002-0.034 0.004-0.066 0.004-0.1 0-1.463-1.116-2.665-2.543-2.799v-9.131h18.357v12.028h-6.53z"></path>
<path d="M33.847 20.179c-0.166-0.062-0.35 0.023-0.412 0.188l-1.95 5.246h-6.818c-0.177 0-0.32 0.143-0.32 0.32s0.143 0.32 0.32 0.32h7.040c0.134 0 0.254-0.083 0.301-0.209l2.027-5.455c0.062-0.164-0.021-0.348-0.188-0.41z"></path>
<path d="M17.259 21.039c-2.283 0-4.132 1.668-4.132 3.951v1.263h8.265l0.002-1.263c-0.002-2.283-1.852-3.951-4.134-3.951z"></path>
<path d="M20.924 8.218h0.531v-0.331h-0.531v-0.401h0.567v-0.339h-0.973v1.781h0.405z"></path>
<path d="M22.421 8.954c0.45 0 0.751-0.32 0.751-0.941 0-0.433-0.207-0.892-0.725-0.892-0.48 0-0.755 0.418-0.755 0.919 0 0.489 0.239 0.913 0.73 0.913zM22.436 7.456c0.207 0 0.311 0.26 0.311 0.572 0 0.348-0.107 0.593-0.311 0.593s-0.32-0.245-0.318-0.585c0-0.309 0.1-0.58 0.318-0.58z"></path>
<path d="M23.819 8.235h0.079c0.137 0 0.198 0.058 0.237 0.275 0.038 0.209 0.085 0.369 0.109 0.42h0.42c-0.034-0.068-0.085-0.307-0.132-0.497-0.041-0.171-0.105-0.286-0.226-0.335v-0.009c0.164-0.064 0.294-0.228 0.294-0.437 0-0.489-0.465-0.514-0.702-0.514-0.186 0-0.356 0.017-0.482 0.036v1.756h0.403v-0.695zM23.819 7.454c0.023-0.006 0.066-0.011 0.132-0.011 0.094 0 0.245 0.038 0.245 0.241 0 0.145-0.098 0.252-0.269 0.252h-0.107v-0.482z"></path>
<path d="M25.21 8.294c0.009-0.192 0.021-0.442 0.028-0.663h0.006c0.036 0.22 0.087 0.461 0.132 0.631l0.16 0.634h0.307l0.175-0.638c0.049-0.171 0.111-0.412 0.156-0.627h0.006c-0.002 0.235 0.006 0.471 0.017 0.661l0.026 0.636h0.382l-0.102-1.781h-0.489l-0.151 0.574c-0.053 0.207-0.105 0.435-0.141 0.64h-0.009c-0.034-0.209-0.085-0.427-0.137-0.638l-0.143-0.576h-0.495l-0.122 1.781h0.365l0.028-0.634z"></path>
<path d="M32.721 11.842h-11.676v-1.649c0-0.177-0.143-0.32-0.32-0.32s-0.32 0.143-0.32 0.32v1.969c0 0.177 0.143 0.32 0.32 0.32h11.998c0.177 0 0.32-0.143 0.32-0.32s-0.145-0.32-0.322-0.32z"></path>
<path d="M25.024 11.364c0.211 0 0.38-0.169 0.38-0.38 0-0.203-0.16-0.38-0.38-0.38-0.211 0-0.38 0.169-0.38 0.38s0.169 0.38 0.38 0.38z"></path>
<path d="M23.616 11.364c0.211 0 0.38-0.169 0.38-0.38 0-0.203-0.16-0.38-0.38-0.38-0.211 0-0.38 0.169-0.38 0.38s0.169 0.38 0.38 0.38z"></path>
<path d="M21.828 10.985c0 0.211 0.169 0.38 0.38 0.38s0.38-0.169 0.38-0.38c0-0.203-0.16-0.38-0.38-0.38-0.209 0-0.38 0.169-0.38 0.38z"></path>
<path d="M26.052 10.985c0 0.211 0.169 0.38 0.38 0.38s0.38-0.169 0.38-0.38c0-0.203-0.16-0.38-0.38-0.38-0.209 0-0.38 0.169-0.38 0.38z"></path>
<path d="M27.84 11.364c0.211 0 0.38-0.169 0.38-0.38 0-0.203-0.16-0.38-0.38-0.38-0.211 0-0.38 0.169-0.38 0.38s0.169 0.38 0.38 0.38z"></path>
<path d="M29.248 11.364c0.211 0 0.38-0.169 0.38-0.38 0-0.203-0.16-0.38-0.38-0.38-0.211 0-0.38 0.169-0.38 0.38s0.169 0.38 0.38 0.38z"></path>
<path d="M32.721 15.155h-11.676v-1.651c0-0.177-0.143-0.32-0.32-0.32s-0.32 0.143-0.32 0.32v1.969c0 0.177 0.143 0.32 0.32 0.32h11.998c0.177 0 0.32-0.143 0.32-0.32s-0.145-0.318-0.322-0.318z"></path>
<path d="M22.59 14.295c0-0.203-0.16-0.38-0.38-0.38-0.211 0-0.38 0.169-0.38 0.38s0.169 0.38 0.38 0.38 0.38-0.169 0.38-0.38z"></path>
<path d="M25.404 14.295c0-0.203-0.16-0.38-0.38-0.38-0.211 0-0.38 0.169-0.38 0.38s0.169 0.38 0.38 0.38 0.38-0.169 0.38-0.38z"></path>
<path d="M23.996 14.295c0-0.203-0.16-0.38-0.38-0.38-0.211 0-0.38 0.169-0.38 0.38s0.169 0.38 0.38 0.38 0.38-0.169 0.38-0.38z"></path>
<path d="M28.22 14.295c0-0.203-0.16-0.38-0.38-0.38-0.211 0-0.38 0.169-0.38 0.38s0.169 0.38 0.38 0.38 0.38-0.169 0.38-0.38z"></path>
<path d="M29.628 14.295c0-0.203-0.16-0.38-0.38-0.38-0.211 0-0.38 0.169-0.38 0.38s0.169 0.38 0.38 0.38 0.38-0.169 0.38-0.38z"></path>
<path d="M26.814 14.295c0-0.203-0.16-0.38-0.38-0.38-0.211 0-0.38 0.169-0.38 0.38s0.169 0.38 0.38 0.38 0.38-0.169 0.38-0.38z"></path>
</symbol>
<symbol id="wm_listing" viewBox="0 0 50 32">
<title>listing</title>
<path d="M13.054 15.13h9.434c0.177 0 0.32-0.143 0.32-0.32s-0.143-0.32-0.32-0.32h-9.434c-0.177 0-0.32 0.143-0.32 0.32s0.145 0.32 0.32 0.32zM29.419 26.492h-18.362c-0.177 0-0.32 0.143-0.32 0.32s0.143 0.32 0.32 0.32h18.364c0.177 0 0.32-0.143 0.32-0.32s-0.145-0.32-0.322-0.32zM26.231 14.146h-2.447v1.299h2.447v-1.299zM19.251 19.838c0.177-0.151 0.335-0.433 0.335-0.89 0-0.395-0.119-0.666-0.326-0.834-0.179-0.141-0.414-0.211-0.768-0.211-0.213 0-0.416 0.019-0.563 0.045v2.101c0.102 0.013 0.26 0.030 0.469 0.030 0.371 0 0.661-0.077 0.853-0.241zM18.413 18.295c0.034-0.009 0.081-0.013 0.149-0.013 0.307 0 0.514 0.222 0.514 0.668 0 0.529-0.228 0.742-0.546 0.74-0.038 0-0.085 0-0.117-0.006v-1.389zM27.292 18.528h-3.49c-0.177 0-0.32 0.143-0.32 0.32s0.143 0.32 0.32 0.32h3.49c0.177 0 0.32-0.143 0.32-0.32s-0.143-0.32-0.32-0.32zM23.482 17.363c0 0.177 0.143 0.32 0.32 0.32h3.49c0.177 0 0.32-0.143 0.32-0.32s-0.143-0.32-0.32-0.32h-3.49c-0.177 0-0.32 0.145-0.32 0.32zM32.049 5.188c-3.292 0-5.963 1.818-5.963 4.062 0 1.199 0.764 2.276 1.975 3.019h-16.747c-0.177 0-0.32 0.143-0.32 0.32v12.156c0 0.177 0.143 0.32 0.32 0.32h17.845c0.177 0 0.32-0.143 0.32-0.32v-11.744l0.105-0.053c0.751 0.233 1.585 0.363 2.462 0.363 3.292 0 5.963-1.818 5.963-4.060 0-2.244-2.669-4.062-5.961-4.062zM28.841 24.425h-17.205v-11.518h16.367l-0.764 1.237 1.602-0.817v11.098zM34.033 8.243c-0.162 0.043-1.643 1.193-1.741 1.474-0.021 0.098 0.002 1.041 0.023 1.182 0.098 0.021 0.802 0.002 0.93 0.023l-0.015 0.292c-0.126-0.011-1.022-0.006-1.532-0.006-0.26 0-1.094 0.028-1.35 0.021l0.049-0.277c0.141-0.011 0.723 0.026 0.849-0.111 0.064-0.068 0.043-0.964 0.021-1.116-0.053-0.162-1.35-1.788-1.69-2.054h-0.875v-0.41h2.946v0.028c0.002 0 0.009 0 0.011 0l-0.011 0.068v0.309h-0.89c0.397 0.58 0.964 1.278 1.205 1.615l1.186-1.075h-0.706l-0.098-0.407h2.583l-0.019 0.030c0.002 0 0.006 0 0.009 0l-0.186 0.269c-0.002 0-0.004 0-0.006 0l-0.075 0.111h-0.478c-0.051 0.015-0.107 0.028-0.143 0.034zM34.814 11.23l-0.215-0.015-0.201-0.017-0.002-0.435 0.254 0.032 0.228 0.011-0.064 0.425zM34.859 10.507l-0.397-0.032-0.011-1.843c0.092 0.017 0.791 0.085 0.868 0.087l-0.461 1.788zM22.496 16.527h-9.395c-0.177 0-0.32 0.143-0.32 0.32v4.395c0 0.177 0.143 0.32 0.32 0.32h9.397c0.177 0 0.32-0.143 0.32-0.32v-4.395c-0.002-0.177-0.145-0.32-0.322-0.32zM22.176 20.922h-8.755v-3.755h8.757v3.755zM16.544 19.561h0.493l0.124 0.499h0.506l-0.548-2.144h-0.619l-0.565 2.144h0.493l0.117-0.499zM16.7 18.763c0.026-0.122 0.062-0.32 0.090-0.45h0.006c0.028 0.13 0.064 0.322 0.092 0.45l0.094 0.429h-0.378l0.096-0.429z"></path>
</symbol>
<symbol id="wm_lpo" viewBox="0 0 50 32">
<title>lpo</title>
<path d="M17.99 8.663h-0.009c-0.043 0.201-0.098 0.503-0.137 0.691l-0.149 0.661h0.58l-0.145-0.661c-0.043-0.196-0.098-0.493-0.141-0.691zM20.661 10.784c0.418 0.004 0.732-0.237 0.815-0.811 0.015-0.1 0.026-0.207 0.026-0.329 0-0.687-0.316-1.028-0.789-1.028-0.107 0-0.179 0.009-0.23 0.021v2.138c0.004 0 0.011 0 0.015 0.002 0.047 0.004 0.109 0.006 0.164 0.006zM35.878 22.72l-0.284-0.284c-0.079-0.079-0.297-0.267-0.597-0.267-0.045 0-0.092 0.004-0.137 0.013l-0.425 0.083c0.791-1.25 1.289-2.705 1.389-4.267 0.147-0.132 0.243-0.311 0.26-0.51 0.021-0.245-0.073-0.495-0.26-0.681-0.307-4.747-4.267-8.516-9.090-8.516-0.565 0-1.116 0.053-1.651 0.154-0.845-1.542-3.027-2.641-5.585-2.641-3.292 0-5.963 1.818-5.963 4.062 0 1.973 2.069 3.618 4.811 3.985-0.465 1.092-0.721 2.293-0.721 3.552 0 5.024 4.087 9.111 9.109 9.111 1.997 0 3.844-0.646 5.348-1.741l-0.045 0.233c-0.049 0.247 0.045 0.521 0.254 0.73l0.286 0.286c0.156 0.158 0.346 0.241 0.544 0.241 0.256 0 0.486-0.143 0.599-0.371l0.382-0.789c0.209-0.047 0.401-0.149 0.555-0.303s0.256-0.346 0.303-0.555l0.787-0.38c0.201-0.1 0.335-0.284 0.367-0.495 0.036-0.23-0.049-0.467-0.237-0.651zM33.751 22.148l-1.506-1.681 2.891-1.982c-0.171 1.344-0.657 2.592-1.385 3.663zM35.115 16.141c-0.154-0.094-0.329-0.147-0.508-0.147-0.134 0-0.262 0.028-0.382 0.085l-2.14 1.005h-0.326c-0.064-3.486-1.161-6.417-2.767-7.844 3.183 0.881 5.621 3.575 6.123 6.901zM27.061 8.969c2.212 0.314 3.972 3.806 4.055 8.115h-1.901l-0.431-0.482c-0.514-0.582-1.141-1.018-1.724-1.222v-6.411zM30.724 17.724l-0.657 0.309-0.275-0.309h0.932zM22.737 13.961l1.572 0.804-1.071-1.734c1.355-0.745 2.223-1.884 2.223-3.162 0-0.177-0.019-0.354-0.051-0.525 0.322-0.198 0.661-0.324 1.011-0.373v6.285c-0.015 0-0.030-0.002-0.045-0.002 0 0 0 0 0 0-0.365 0-0.681 0.124-0.913 0.356-0.171 0.171-0.369 0.476-0.354 0.964 0.004 0.164 0.038 0.337 0.090 0.514h-2.839c0.021-1.114 0.154-2.167 0.378-3.127zM19.735 8.098c0.226-0.038 0.538-0.068 0.866-0.068 0.546 0 0.905 0.107 1.182 0.324 0.288 0.235 0.463 0.597 0.497 1.107 0.004 0.058 0.006 0.115 0.006 0.177 0 0.233-0.028 0.433-0.075 0.608-0.092 0.356-0.26 0.604-0.442 0.762-0.23 0.196-0.557 0.311-0.962 0.354-0.111 0.011-0.228 0.017-0.352 0.017-0.209 0-0.382-0.011-0.525-0.026-0.075-0.006-0.143-0.015-0.196-0.021v-3.234zM17.606 10.583l-0.179 0.768h-0.759l0.87-3.298h0.951l0.845 3.298h-0.777l-0.192-0.768h-0.759zM19.023 13.914c0.158 0.009 0.316 0.015 0.476 0.015 0.879 0 1.711-0.13 2.462-0.363l0.183 0.094c-0.254 1.047-0.405 2.202-0.427 3.426h-3.441c0.043-1.129 0.305-2.199 0.747-3.172zM18.276 17.724h3.443c0.062 3.479 1.152 6.404 2.75 7.84-3.473-0.966-6.054-4.096-6.193-7.84zM26.421 23.334l-0.489 1.039c-0.164 0.341-0.079 0.785 0.209 1.073l0.279 0.279v0.126c-2.217-0.307-3.981-3.808-4.062-8.126h3.115c0.226 0.405 0.55 0.806 0.949 1.167v4.442zM28.335 25.291l1.89-2.756c-0.484 1.225-1.137 2.187-1.89 2.756zM29.007 25.564c0.717-0.644 1.331-1.587 1.798-2.746l1.282 1.148c-0.894 0.73-1.939 1.28-3.081 1.598zM35.467 23.29l-1.141 0.55c0.051 0.181 0.011 0.375-0.122 0.508-0.030 0.030-0.064 0.053-0.098 0.073-0.011 0.006-0.019 0.011-0.030 0.015-0.028 0.015-0.058 0.026-0.087 0.034-0.009 0.002-0.017 0.006-0.028 0.009-0.038 0.009-0.077 0.013-0.117 0.011-0.049 0-0.098-0.006-0.145-0.019l-0.55 1.141c-0.004 0.009-0.013 0.013-0.023 0.013-0.002 0-0.006 0-0.009-0.002-0.009 0-0.017-0.004-0.028-0.009-0.004-0.002-0.009-0.004-0.013-0.006-0.015-0.009-0.030-0.019-0.045-0.036l-0.286-0.286c-0.051-0.051-0.085-0.117-0.079-0.156l0.192-0.983 0.058-0.297-2.711-2.428c-0.011 0.017-0.019 0.036-0.032 0.053l-2.778 4.051c-0.015 0.021-0.034 0.038-0.055 0.049-0.009 0.004-0.017 0.004-0.023 0.006-0.015 0.004-0.028 0.009-0.045 0.009s-0.036-0.006-0.053-0.013c-0.009-0.002-0.017-0.002-0.023-0.006-0.026-0.013-0.051-0.030-0.075-0.053l-0.525-0.525c-0.092-0.092-0.132-0.243-0.081-0.348l2.159-4.593-1.786-1.598c-0.171-0.151-0.326-0.314-0.465-0.48-0.068-0.081-0.13-0.164-0.19-0.247-0.154-0.215-0.275-0.433-0.358-0.64-0.171-0.427-0.177-0.806 0.043-1.026 0.028-0.028 0.060-0.053 0.094-0.075 0.013-0.009 0.030-0.015 0.043-0.021 0.021-0.011 0.041-0.023 0.064-0.030 0.017-0.006 0.036-0.009 0.055-0.015 0.021-0.006 0.043-0.013 0.066-0.017 0.019-0.004 0.041-0.004 0.062-0.006 0.023-0.002 0.047-0.004 0.070-0.006 0.009 0 0.017 0.002 0.026 0.002s0.017 0.002 0.026 0.002c0.047 0.002 0.094 0.006 0.143 0.015 0.017 0.002 0.032 0.004 0.049 0.009 0.066 0.013 0.134 0.030 0.205 0.053 0.006 0.002 0.013 0.004 0.019 0.006 0.066 0.021 0.132 0.049 0.201 0.081 0.009 0.004 0.015 0.006 0.023 0.011 0.011 0.004 0.019 0.009 0.030 0.013 0.075 0.036 0.149 0.075 0.224 0.117 0.004 0.002 0.009 0.004 0.011 0.006 0.073 0.043 0.145 0.090 0.218 0.141 0.017 0.013 0.036 0.026 0.055 0.038 0.077 0.055 0.151 0.111 0.226 0.175 0.002 0.002 0.004 0.002 0.004 0.004 0.073 0.060 0.145 0.126 0.215 0.192 0.017 0.017 0.036 0.034 0.053 0.051 0.073 0.070 0.143 0.143 0.211 0.22l0.049 0.055 1.551 1.73 4.593-2.159c0.030-0.015 0.062-0.019 0.096-0.021 0.026 0 0.053 0.002 0.079 0.009 0.004 0.002 0.009 0.002 0.015 0.004 0.023 0.006 0.047 0.015 0.068 0.028 0.006 0.004 0.015 0.006 0.021 0.011 0.026 0.015 0.049 0.032 0.070 0.053l0.348 0.348v0.004l0.175 0.175c0.094 0.092 0.102 0.213 0.011 0.275l-0.183 0.126-0.087 0.060-3.782 2.592c-0.017 0.011-0.034 0.021-0.053 0.032l0.183 0.207 2.242 2.507 1.28-0.25c0.006-0.002 0.015 0 0.026 0.002 0.004 0 0.009 0 0.013 0.002 0.009 0.002 0.015 0.006 0.023 0.009 0.004 0.002 0.011 0.004 0.015 0.006 0.009 0.004 0.017 0.011 0.028 0.017 0.004 0.002 0.009 0.006 0.013 0.009 0.013 0.011 0.026 0.021 0.038 0.034l0.286 0.286c0.053 0.047 0.073 0.098 0.041 0.113zM27.061 21.973v-2.507l0.83 0.742-0.83 1.764z"></path>
</symbol>
<symbol id="wm_mail" viewBox="0 0 50 32">
<title>mail</title>
<path d="M28.766 13.903h-0.954v-0.653h0.851v-0.523h-0.851v-0.561h0.9v-0.533h-1.538v2.803h1.591v-0.533zM33.073 26.291v-10.891c0-0.028-0.004-0.055-0.011-0.081-0.002-0.009-0.006-0.017-0.009-0.023-0.006-0.017-0.013-0.034-0.023-0.051-0.004-0.009-0.011-0.017-0.015-0.023-0.011-0.015-0.021-0.028-0.034-0.041-0.006-0.006-0.013-0.015-0.021-0.019-0.004-0.002-0.006-0.006-0.011-0.011l-2.686-2.082v-4.71c0.006-0.026 0.011-0.051 0.011-0.079 0-0.105-0.049-0.196-0.126-0.256l-2.575-2.575c-0.019-0.019-0.043-0.036-0.068-0.051-0.006-0.004-0.013-0.006-0.019-0.011-0.026-0.013-0.051-0.021-0.077-0.028 0 0-0.002 0-0.002 0-0.019-0.004-0.041-0.006-0.060-0.006h-7.797c-0.177 0-0.32 0.143-0.32 0.32v7.388l-2.686 2.086c-0.004 0.002-0.006 0.006-0.011 0.011-0.006 0.006-0.013 0.013-0.021 0.019-0.013 0.013-0.023 0.026-0.034 0.041-0.006 0.009-0.011 0.017-0.015 0.023-0.009 0.017-0.017 0.034-0.023 0.051-0.002 0.009-0.006 0.017-0.009 0.023-0.006 0.026-0.011 0.053-0.011 0.081v10.925c0 0 0 0.002 0 0.002 0 0.002 0 0.006 0 0.009 0 0.028 0.006 0.053 0.015 0.081 0 0.004 0 0.006 0.002 0.011 0 0.002 0.002 0.004 0.004 0.006 0.011 0.028 0.023 0.053 0.041 0.077 0.002 0.004 0.006 0.009 0.011 0.013 0.017 0.021 0.036 0.038 0.055 0.055 0.002 0.002 0.006 0.004 0.009 0.009 0.023 0.017 0.049 0.028 0.077 0.038 0.006 0.002 0.013 0.004 0.017 0.006 0.028 0.009 0.058 0.015 0.090 0.015h16.019c0.177 0 0.32-0.143 0.32-0.32-0.002-0.011-0.004-0.021-0.006-0.032zM30.263 13.875l1.967 1.525-1.967 1.525v-3.051zM27.667 6.449l1.51 1.51h-1.51v-1.51zM19.87 5.997h7.157v2.285c0 0.177 0.143 0.32 0.32 0.32h2.276v8.819l-3.917 3.036-0.764-0.593c-0.115-0.090-0.277-0.090-0.393 0l-0.764 0.593-3.917-3.036v-11.424zM19.23 13.875v3.051l-1.967-1.525 1.967-1.525zM17.060 16.053l6.204 4.809-6.206 4.811v-9.619zM17.675 26.003l7.072-5.481 0.437 0.339 0.521 0.405 6.112 4.738h-14.142zM32.433 25.67l-6.208-4.811 6.204-4.809v9.619zM24.258 14.436h0.659l-0.719-2.803h-0.809l-0.74 2.803h0.646l0.151-0.653h0.646l0.164 0.653zM23.524 13.301l0.128-0.561c0.032-0.16 0.079-0.418 0.115-0.587h0.006c0.036 0.171 0.083 0.42 0.119 0.587l0.124 0.561h-0.493zM21.856 12.777c-0.341-0.156-0.457-0.233-0.457-0.388 0-0.137 0.119-0.258 0.367-0.258 0.224 0 0.393 0.064 0.493 0.115l0.119-0.525c-0.068-0.034-0.156-0.064-0.258-0.087-0.1-0.021-0.218-0.036-0.35-0.036-0.049 0-0.092 0.006-0.139 0.011-0.484 0.043-0.785 0.309-0.858 0.663-0.011 0.055-0.017 0.115-0.017 0.175 0 0.075 0.013 0.147 0.036 0.215 0.079 0.237 0.292 0.439 0.636 0.597 0.29 0.13 0.416 0.224 0.416 0.395 0 0.166-0.13 0.284-0.399 0.284-0.224 0-0.461-0.068-0.61-0.145l-0.109 0.538c0.13 0.073 0.41 0.145 0.693 0.145 0.678 0 1.067-0.363 1.067-0.875 0-0.35-0.186-0.625-0.631-0.823zM26.825 13.897h-0.928v-2.263h-0.638v2.803h1.566v-0.54z"></path>
</symbol>
<symbol id="wm_offline" viewBox="0 0 50 32">
<title>offline</title>
<path d="M17.44 15.529h10.65c0.177 0 0.32-0.143 0.32-0.32v-3.957c0-0.177-0.143-0.32-0.32-0.32h-10.65c-0.177 0-0.32 0.143-0.32 0.32v3.955c0 0.179 0.143 0.322 0.32 0.322zM17.76 11.571h10.010v3.315h-10.010v-3.315zM17.44 18.485h10.788c0.177 0 0.32-0.143 0.32-0.32s-0.143-0.32-0.32-0.32h-10.788c-0.177 0-0.32 0.143-0.32 0.32s0.143 0.32 0.32 0.32zM17.44 17.129h10.788c0.177 0 0.32-0.143 0.32-0.32s-0.143-0.32-0.32-0.32h-10.788c-0.177 0-0.32 0.143-0.32 0.32s0.143 0.32 0.32 0.32zM18.867 9.521c0-0.471-0.013-0.875-0.030-1.182h0.013c0.096 0.273 0.245 0.619 0.369 0.87l0.461 0.96h0.597v-2.639h-0.54v0.629c0 0.437 0.021 0.851 0.051 1.158h-0.006c-0.098-0.267-0.243-0.604-0.363-0.841l-0.45-0.945h-0.642v2.639h0.54v-0.651zM26.349 9.698c-0.211 0-0.433-0.064-0.574-0.137l-0.102 0.506c0.124 0.068 0.386 0.137 0.653 0.137 0.638 0 1.005-0.341 1.005-0.823 0-0.329-0.175-0.587-0.595-0.774-0.32-0.147-0.431-0.218-0.431-0.365 0-0.13 0.113-0.243 0.346-0.243 0.211 0 0.369 0.062 0.465 0.109l0.113-0.495c-0.126-0.062-0.32-0.115-0.574-0.115-0.612 0-0.954 0.352-0.954 0.8 0 0.314 0.215 0.574 0.631 0.764 0.273 0.124 0.393 0.211 0.393 0.373 0 0.156-0.124 0.265-0.375 0.265zM23.629 10.17l0.201-0.96c0.055-0.256 0.096-0.523 0.143-0.836h0.006c0.034 0.318 0.073 0.587 0.115 0.834l0.177 0.962h0.642l0.578-2.639h-0.602l-0.158 1.024c-0.047 0.311-0.090 0.608-0.124 0.926h-0.011c-0.034-0.318-0.075-0.602-0.126-0.905l-0.177-1.045h-0.58l-0.192 1.024c-0.058 0.32-0.119 0.629-0.16 0.932h-0.006c-0.038-0.29-0.075-0.619-0.119-0.926l-0.149-1.030h-0.638l0.542 2.639h0.638zM22.259 9.668h-0.898v-0.614h0.802v-0.491h-0.802v-0.529h0.847v-0.503h-1.449v2.639h1.5v-0.501zM20.239 20.557h-2.799c-0.177 0-0.32 0.143-0.32 0.32s0.143 0.32 0.32 0.32h2.799c0.177 0 0.32-0.143 0.32-0.32s-0.143-0.32-0.32-0.32zM33.598 24.521v-10.148c0-0.177-0.143-0.32-0.32-0.32h-2.967v-8.403c0-0.177-0.143-0.32-0.32-0.32h-14.21c-0.177 0-0.32 0.143-0.32 0.32v19.053c0 1.086 0.883 1.967 1.967 1.967h14.21c1.086 0 1.967-0.883 1.967-1.967 0.002-0.060-0.002-0.122-0.006-0.181zM17.429 26.031c-0.732 0-1.327-0.595-1.327-1.327v-18.735h13.57v18.733c0 0.066 0.004 0.13 0.011 0.196 0.002 0.021 0.006 0.041 0.009 0.062 0.006 0.043 0.011 0.085 0.019 0.128 0.004 0.023 0.011 0.047 0.017 0.073 0.009 0.038 0.017 0.075 0.028 0.113 0.009 0.026 0.017 0.049 0.026 0.073 0.013 0.034 0.023 0.068 0.038 0.102 0.011 0.026 0.021 0.049 0.032 0.073 0.015 0.032 0.030 0.064 0.047 0.096 0.013 0.023 0.026 0.047 0.041 0.070 0.017 0.030 0.036 0.060 0.053 0.090 0.015 0.023 0.030 0.045 0.047 0.066 0.019 0.028 0.041 0.055 0.062 0.083 0.017 0.021 0.034 0.043 0.053 0.064 0.013 0.015 0.023 0.028 0.036 0.043h-12.762zM31.637 26.031c-0.732 0-1.327-0.595-1.327-1.327v-10.012h2.647v9.843c0 0.011 0 0.021 0.002 0.032 0.004 0.045 0.006 0.090 0.006 0.134 0 0.734-0.595 1.329-1.329 1.329zM20.239 23.27h-2.799c-0.177 0-0.32 0.143-0.32 0.32s0.143 0.32 0.32 0.32h2.799c0.177 0 0.32-0.143 0.32-0.32s-0.143-0.32-0.32-0.32zM23.625 22.204h0.531l0.134 0.538h0.544l-0.591-2.31h-0.666l-0.61 2.31h0.531l0.126-0.538zM23.791 21.342c0.028-0.132 0.066-0.343 0.096-0.484h0.006c0.030 0.141 0.068 0.348 0.098 0.484l0.102 0.463h-0.405l0.102-0.463zM26.539 22.502c0.192-0.164 0.363-0.465 0.363-0.96 0-0.425-0.128-0.717-0.352-0.9-0.194-0.151-0.446-0.226-0.828-0.226-0.23 0-0.448 0.021-0.606 0.047v2.266c0.111 0.015 0.282 0.032 0.506 0.032 0.397 0.002 0.713-0.081 0.917-0.258zM25.636 20.841c0.036-0.009 0.087-0.015 0.162-0.015 0.333 0 0.553 0.239 0.553 0.721 0 0.572-0.245 0.8-0.589 0.798-0.043 0-0.092 0-0.126-0.006v-1.498zM20.239 21.914h-2.799c-0.177 0-0.32 0.143-0.32 0.32s0.143 0.32 0.32 0.32h2.799c0.177 0 0.32-0.143 0.32-0.32s-0.143-0.32-0.32-0.32zM28.294 19.164h-6.656c-0.177 0-0.32 0.143-0.32 0.32v4.211c0 0.177 0.143 0.32 0.32 0.32h6.656c0.177 0 0.32-0.143 0.32-0.32v-4.211c0-0.177-0.143-0.32-0.32-0.32zM27.974 23.375h-6.016v-3.571h6.016v3.571zM20.239 19.2h-2.799c-0.177 0-0.32 0.143-0.32 0.32s0.143 0.32 0.32 0.32h2.799c0.177 0 0.32-0.143 0.32-0.32s-0.143-0.32-0.32-0.32z"></path>
</symbol>
<symbol id="wm_othermedia" viewBox="0 0 50 32">
<title>othermedia</title>
<path d="M16.337 18.191h0.493l0.124 0.499h0.506l-0.548-2.144h-0.619l-0.565 2.144h0.493l0.117-0.499zM16.491 17.393c0.026-0.122 0.062-0.32 0.090-0.45h0.006c0.028 0.13 0.064 0.322 0.092 0.45l0.094 0.429h-0.378l0.096-0.429zM21.675 15.358h-8.211c-0.177 0-0.32 0.143-0.32 0.32v3.955c0 0.177 0.143 0.32 0.32 0.32h8.211c0.177 0 0.32-0.143 0.32-0.32v-3.955c0-0.177-0.143-0.32-0.32-0.32zM21.355 19.313h-7.571v-3.315h7.571v3.315zM21.675 22.438h-8.211c-0.177 0-0.32 0.143-0.32 0.32s0.143 0.32 0.32 0.32h8.211c0.177 0 0.32-0.143 0.32-0.32s-0.143-0.32-0.32-0.32zM19.042 18.468c0.177-0.151 0.335-0.433 0.335-0.89 0-0.395-0.119-0.666-0.326-0.834-0.179-0.141-0.414-0.211-0.768-0.211-0.213 0-0.416 0.019-0.563 0.045v2.101c0.102 0.013 0.26 0.030 0.469 0.030 0.371 0 0.663-0.077 0.853-0.241zM18.206 16.926c0.034-0.009 0.081-0.013 0.149-0.013 0.307 0 0.514 0.222 0.514 0.668 0 0.529-0.228 0.742-0.546 0.74-0.038 0-0.085 0-0.117-0.006v-1.389zM21.675 21.082h-8.211c-0.177 0-0.32 0.143-0.32 0.32s0.143 0.32 0.32 0.32h8.211c0.177 0 0.32-0.143 0.32-0.32s-0.143-0.32-0.32-0.32zM34.976 12.826c-0.213 0-0.416 0.019-0.563 0.045v2.101c0.102 0.013 0.26 0.030 0.469 0.030 0.371 0 0.663-0.077 0.853-0.241 0.177-0.151 0.335-0.433 0.335-0.89 0-0.395-0.119-0.666-0.326-0.834-0.179-0.141-0.412-0.211-0.768-0.211zM35.014 14.615c-0.038 0-0.085 0-0.117-0.006v-1.389c0.034-0.009 0.081-0.013 0.149-0.013 0.307 0 0.514 0.222 0.514 0.668 0.002 0.529-0.226 0.742-0.546 0.74zM30.129 17.948h8.211c0.177 0 0.32-0.143 0.32-0.32s-0.143-0.32-0.32-0.32h-8.211c-0.177 0-0.32 0.143-0.32 0.32s0.143 0.32 0.32 0.32zM30.129 16.181h8.211c0.177 0 0.32-0.143 0.32-0.32v-3.957c0-0.177-0.143-0.32-0.32-0.32h-8.211c-0.177 0-0.32 0.143-0.32 0.32v3.955c0 0.179 0.143 0.322 0.32 0.322zM30.449 12.224h7.571v3.315h-7.571v-3.315zM30.129 19.305h8.211c0.177 0 0.32-0.143 0.32-0.32s-0.143-0.32-0.32-0.32h-8.211c-0.177 0-0.32 0.143-0.32 0.32s0.143 0.32 0.32 0.32zM39.782 4.945h-11.093c-0.177 0-0.32 0.143-0.32 0.32v21.47c0 0.177 0.143 0.32 0.32 0.32h11.093c0.177 0 0.32-0.143 0.32-0.32v-21.47c0-0.177-0.145-0.32-0.32-0.32zM39.462 26.415h-10.453v-2.94h10.453v2.94zM39.462 22.837h-10.453v-13.675h10.453v13.675zM39.462 8.523h-10.453v-2.938h10.453v2.938zM34.159 25.515c0.361 0 0.653-0.292 0.653-0.653s-0.292-0.653-0.653-0.653c-0.361 0-0.653 0.292-0.653 0.653s0.292 0.653 0.653 0.653zM25.854 26.415h-16.57c-0.177 0-0.32 0.143-0.32 0.32s0.143 0.32 0.32 0.32h16.57c0.177 0 0.32-0.143 0.32-0.32s-0.143-0.32-0.32-0.32zM32.986 12.841l-0.565 2.144h0.493l0.117-0.499h0.493l0.124 0.499h0.506l-0.548-2.144h-0.619zM33.088 14.116l0.098-0.429c0.026-0.122 0.062-0.32 0.090-0.45h0.004c0.028 0.13 0.064 0.322 0.092 0.45l0.094 0.429h-0.378zM9.519 25.188h16.102c0.177 0 0.32-0.143 0.32-0.32v-10.97c0-0.177-0.143-0.32-0.32-0.32h-16.102c-0.177 0-0.32 0.143-0.32 0.32v10.97c0 0.177 0.143 0.32 0.32 0.32zM9.839 14.219h15.462v10.33h-15.462v-10.33z"></path>
</symbol>
<symbol id="wm_retargeting" viewBox="0 0 50 32">
<title>retargeting</title>
<path d="M32.175 19.189v0l-0.006-0.002c-0.149 0.471-0.341 0.915-0.567 1.335-0.021 0.036-0.041 0.073-0.062 0.109-0.087 0.154-0.179 0.305-0.275 0.45-0.043 0.066-0.085 0.132-0.13 0.196-0.075 0.107-0.156 0.209-0.235 0.314-0.066 0.083-0.13 0.171-0.198 0.252-0.049 0.058-0.1 0.111-0.151 0.166-0.339 0.375-0.713 0.719-1.116 1.022-0.043 0.032-0.085 0.066-0.13 0.098-0.117 0.085-0.239 0.164-0.361 0.241-0.068 0.045-0.137 0.087-0.207 0.128-0.109 0.066-0.218 0.128-0.329 0.188-0.098 0.053-0.201 0.102-0.301 0.151-0.090 0.043-0.177 0.085-0.267 0.126-0.124 0.053-0.25 0.1-0.375 0.149 0.156-1.954 0.567-7.166 0.567-8.021 0-0.811-0.309-1.446-0.841-1.813 0.631-0.548 0.932-1.427 0.704-2.287-0.262-0.992-1.161-1.683-2.185-1.683-0.194 0-0.39 0.026-0.58 0.075-1.205 0.32-1.926 1.559-1.609 2.765 0.149 0.563 0.503 1.030 0.971 1.329-0.036 0.034-0.070 0.068-0.105 0.105-0.297-0.218-0.638-0.454-0.9-0.638-0.13-0.090-0.235-0.164-0.301-0.211-0.245-0.177-0.535-0.271-0.834-0.271-0.397 0-0.8 0.16-1.201 0.48l-0.068 0.053c-0.111 0.087-0.241 0.188-0.354 0.316-0.102-0.041-0.211-0.062-0.322-0.062-0.311 0-0.599 0.169-0.753 0.442l-0.128 0.228c-0.226 0.405-0.090 0.919 0.305 1.158-0.335 0.619-0.13 1.395 0.469 1.771l2.404 1.598c0.019 0.015 0.038 0.030 0.058 0.045 0.258 0.188 0.555 0.284 0.868 0.284 0.126 0 0.25-0.017 0.369-0.047 0.111 1.783 0.297 4.126 0.356 4.883-0.482-0.023-0.969-0.087-1.453-0.205-2.251-0.546-4.090-2.035-5.101-4.041-0.137-0.269-0.258-0.548-0.363-0.834l0.759-0.047 0.378-0.019-0.002-0.004h0.009l-1.828-2.761-0.909-1.38-0.002 0.004-0.004-0.006-1.472 2.957-0.745 1.485h0.004l-0.004 0.009 1.248-0.077c0.297 1.030 0.749 1.988 1.323 2.854 0.823 1.248 1.907 2.291 3.183 3.066 0.896 0.546 1.882 0.964 2.94 1.22 0.806 0.196 1.615 0.29 2.413 0.29 4.335 0 8.343-2.771 9.76-7.031 0.015-0.045 0.034-0.087 0.049-0.134v0c0-0.002 0.002-0.004 0.002-0.006l-2.366-0.759zM24.245 12.958c-0.213-0.809 0.267-1.638 1.077-1.852 0.13-0.034 0.26-0.051 0.388-0.051 0.67 0 1.284 0.448 1.463 1.126 0.213 0.809-0.269 1.638-1.077 1.852-0.13 0.034-0.26 0.051-0.388 0.051-0.67 0.002-1.284-0.446-1.463-1.126zM21.621 14.524c0.201-0.16 0.465-0.316 0.736-0.316 0.132 0 0.269 0.038 0.399 0.132 0.228 0.164 0.945 0.655 1.406 1.001l-0.623 0.956-1.107-1.101c0 0-0.019 0.002-0.051 0.002-0.117 0-0.412-0.023-0.589-0.243-0.188 0.105-0.288 0.183-0.38 0.183-0.051 0-0.098-0.026-0.158-0.085-0.149-0.156 0.145-0.352 0.367-0.529zM20.226 15.437c-0.055-0.030-0.075-0.1-0.043-0.156l0.128-0.228c0.021-0.038 0.062-0.060 0.1-0.060 0.019 0 0.038 0.004 0.055 0.015l1.86 1.041c0.055 0.030 0.075 0.1 0.043 0.156l-0.128 0.226c-0.021 0.038-0.060 0.060-0.1 0.060-0.019 0-0.038-0.004-0.055-0.015l-1.86-1.039zM26.694 24.365c-0.514 0.134-1.045 0.218-1.585 0.243-0.070-0.883-0.388-4.885-0.442-6.449l-0.448 0.563c-0.141 0.196-0.363 0.299-0.587 0.299-0.147 0-0.297-0.045-0.425-0.139-0.017-0.013-0.034-0.026-0.049-0.041l-2.453-1.63c-0.279-0.169-0.369-0.531-0.201-0.809 0.111-0.183 0.305-0.286 0.506-0.286 0.105 0 0.209 0.028 0.303 0.085l2.086 1.135 0.905-1.37c0.139-0.192 0.322-0.555 0.599-0.843 0.090-0.107 0.196-0.192 0.316-0.256 0.179-0.109 0.388-0.207 0.636-0.207 0.030 0 0.060 0.002 0.092 0.004v0c0.725 0 1.335 0.407 1.335 1.425 0 0.877-0.459 6.66-0.589 8.273zM35.863 12.25l0.002-0.006-1.248 0.077c-0.297-1.033-0.751-1.99-1.325-2.859-0.823-1.246-1.907-2.289-3.185-3.063-0.894-0.544-1.879-0.962-2.935-1.218-4.954-1.203-10.031 1.444-11.932 6.086-0.006 0.013-0.011 0.028-0.017 0.041-0.098 0.241-0.19 0.489-0.271 0.74 0 0.004-0.002 0.004-0.002 0.006v0c0 0.002-0.002 0.004-0.002 0.006l2.374 0.751c0.149-0.471 0.341-0.915 0.567-1.335 0.019-0.036 0.041-0.073 0.062-0.109 0.087-0.156 0.179-0.305 0.275-0.452 0.043-0.066 0.085-0.132 0.13-0.196 0.075-0.107 0.156-0.211 0.235-0.314 0.066-0.083 0.13-0.171 0.198-0.252 0.049-0.058 0.1-0.111 0.151-0.166 0.337-0.375 0.71-0.719 1.114-1.022 0.043-0.032 0.085-0.066 0.13-0.098 0.117-0.085 0.239-0.164 0.361-0.243 0.068-0.043 0.137-0.087 0.205-0.128 0.109-0.064 0.218-0.126 0.329-0.188 0.1-0.053 0.201-0.102 0.301-0.151 0.090-0.043 0.177-0.085 0.267-0.126 0.169-0.073 0.339-0.141 0.512-0.203 0.030-0.009 0.058-0.023 0.087-0.032 1.357-0.461 2.852-0.557 4.333-0.196 2.246 0.546 4.081 2.029 5.097 4.028 0.139 0.273 0.262 0.555 0.367 0.847l-0.757 0.047-0.38 0.019 0.002 0.004h-0.009l2.743 4.145 1.478-2.965 0.74-1.476h0.002z"></path>
</symbol>
<symbol id="wm_search" viewBox="0 0 50 32">
<title>search</title>
<path d="M17.099 10.931c-0.241-0.111-0.322-0.164-0.322-0.273 0-0.098 0.085-0.181 0.258-0.181 0.158 0 0.277 0.047 0.348 0.081l0.034-0.151 0.049-0.22c-0.094-0.047-0.241-0.087-0.429-0.087-0.311 0-0.527 0.124-0.634 0.307-0.051 0.085-0.079 0.186-0.079 0.292 0 0.235 0.162 0.429 0.474 0.574 0.205 0.092 0.294 0.158 0.294 0.279 0 0.117-0.092 0.201-0.282 0.201-0.158 0-0.324-0.049-0.431-0.102l-0.077 0.38c0.092 0.051 0.29 0.102 0.489 0.102 0.478 0 0.753-0.256 0.753-0.617 0-0.25-0.13-0.444-0.446-0.585zM18.259 11.266h0.602v-0.369h-0.602v-0.397h0.634v-0.375h-1.084v1.978h1.124v-0.375h-0.672v-0.461zM19.883 7.516c0.181-0.092 0.375-0.158 0.576-0.203 0.689-0.151 1.453-0.038 1.997 0.23 0.179 0.087 0.335 0.192 0.457 0.309 0.062 0.060 0.143 0.090 0.222 0.090 0.083 0 0.169-0.032 0.23-0.098 0.124-0.128 0.119-0.331-0.009-0.452-0.868-0.838-2.592-1.043-3.763-0.448-0.158 0.081-0.22 0.273-0.141 0.431 0.081 0.158 0.273 0.22 0.431 0.141zM25.039 10.891h-0.557v-0.766h-0.45v1.978h0.45v-0.809h0.557v0.809h0.45v-1.978h-0.45v0.766zM20.162 10.125h-0.57l-0.075 0.282-0.448 1.696h0.454l0.107-0.461h0.454l0.115 0.461h0.465l-0.435-1.696-0.068-0.282zM19.686 11.302l0.090-0.397c0.023-0.113 0.055-0.294 0.081-0.414h0.004c0.026 0.119 0.060 0.297 0.085 0.414l0.087 0.397h-0.348zM41.105 9.766h-14.276c-0.599-2.733-2.999-4.685-5.82-4.685-0.329 0-0.661 0.028-0.99 0.083-2.47 0.412-4.333 2.295-4.845 4.604h-7.213c-0.177 0-0.32 0.143-0.32 0.32v5.493c0 0.177 0.143 0.32 0.32 0.32h9.553c0.983 0.706 2.187 1.118 3.482 1.118 0.329 0 0.661-0.028 0.988-0.083 0.284-0.047 0.557-0.115 0.823-0.198l0.902 2.391-0.544 0.205c-0.079 0.030-0.143 0.090-0.179 0.169s-0.038 0.166-0.009 0.245l2.637 6.967c0.049 0.128 0.171 0.207 0.299 0.207 0.038 0 0.075-0.006 0.113-0.021l1.726-0.653c0.079-0.030 0.143-0.090 0.179-0.169s0.038-0.166 0.009-0.245l-2.637-6.967c-0.062-0.164-0.247-0.25-0.412-0.186l-0.582 0.22-0.902-2.389c0.38-0.169 0.738-0.373 1.069-0.61h16.629c0.177 0 0.32-0.143 0.32-0.32v-5.495c0-0.177-0.143-0.32-0.32-0.32zM24.535 19.499l0.284-0.107 2.411 6.368-1.129 0.427-2.411-6.368 0.245-0.092 0.599-0.228zM8.282 15.26v-4.853h6.79c-0.058 0.529-0.047 1.075 0.045 1.626 0.211 1.265 0.804 2.377 1.647 3.23h-8.482zM24.265 15.26c-0.324 0.252-0.678 0.467-1.060 0.64-0.009 0.004-0.015 0.009-0.023 0.011-0.096 0.043-0.196 0.083-0.297 0.122s-0.201 0.070-0.303 0.102c-0.226 0.070-0.461 0.128-0.702 0.169-0.292 0.049-0.589 0.073-0.883 0.073-0.783 0-1.53-0.171-2.204-0.478-0.378-0.171-0.732-0.388-1.056-0.64-1.026-0.796-1.76-1.963-1.988-3.334-0.085-0.514-0.094-1.026-0.032-1.519 0.026-0.218 0.066-0.431 0.117-0.64 0.499-1.997 2.138-3.612 4.292-3.972 0.292-0.049 0.589-0.073 0.883-0.073 2.47 0 4.578 1.679 5.161 4.045 0.032 0.134 0.064 0.269 0.087 0.407 0.013 0.079 0.023 0.156 0.032 0.233 0.235 1.916-0.587 3.738-2.025 4.855zM32.902 15.26h-7.678c1.235-1.242 1.911-3.006 1.709-4.853h5.967v4.853zM39.078 14.88c-0.062 0.062-0.145 0.094-0.226 0.094s-0.164-0.032-0.226-0.094l-1.092-1.092c-0.284 0.194-0.623 0.305-0.983 0.305-0.113 0-0.228-0.011-0.341-0.034-0.947-0.188-1.564-1.111-1.376-2.059 0.162-0.817 0.883-1.41 1.715-1.41 0.113 0 0.228 0.011 0.341 0.034 0.459 0.092 0.855 0.354 1.114 0.745s0.354 0.855 0.262 1.314c-0.047 0.241-0.145 0.461-0.277 0.653l1.092 1.092c0.122 0.124 0.122 0.326-0.002 0.452zM24.294 8.297c-0.070-0.222-0.307-0.346-0.529-0.275s-0.346 0.307-0.275 0.527c0.070 0.222 0.305 0.346 0.529 0.275 0.222-0.068 0.346-0.305 0.275-0.527zM36.764 11.253c-0.073-0.015-0.145-0.021-0.218-0.021-0.527 0-0.986 0.375-1.088 0.894-0.119 0.602 0.273 1.186 0.873 1.306 0.073 0.015 0.145 0.021 0.218 0.021 0.186 0 0.363-0.049 0.518-0.132 0.192-0.102 0.35-0.258 0.454-0.45 0.053-0.096 0.094-0.201 0.115-0.311 0.058-0.29-0.002-0.587-0.166-0.834s-0.416-0.414-0.706-0.471zM21.899 11.179v-0.011c0.181-0.073 0.329-0.254 0.329-0.486 0-0.113-0.023-0.203-0.062-0.277-0.145-0.275-0.51-0.294-0.719-0.294-0.205 0-0.397 0.017-0.535 0.041v1.95h0.448v-0.77h0.087c0.002 0 0.004 0 0.006 0 0.147 0.002 0.213 0.066 0.256 0.305 0.043 0.233 0.094 0.41 0.119 0.465h0.465c-0.038-0.077-0.094-0.339-0.145-0.553-0.045-0.188-0.113-0.316-0.25-0.369zM21.476 10.999h-0.117v-0.535c0.026-0.009 0.075-0.013 0.145-0.013 0.105 0 0.271 0.043 0.271 0.269 0 0.162-0.109 0.279-0.299 0.279zM23.426 10.479c0.126 0 0.22 0.028 0.286 0.060l0.030-0.13 0.053-0.235c-0.055-0.030-0.194-0.073-0.395-0.073-0.277 0-0.535 0.102-0.719 0.307-0.154 0.171-0.252 0.414-0.252 0.738 0 0.548 0.297 0.986 0.924 0.986 0.194 0 0.348-0.036 0.418-0.066l-0.055-0.363c-0.068 0.026-0.183 0.047-0.286 0.047-0.32 0-0.525-0.215-0.525-0.627 0-0.45 0.237-0.644 0.521-0.644z"></path>
</symbol>
<symbol id="wm_service" viewBox="0 0 50 32">
<title>service</title>
<path d="M16.74 8.055c-0.243 0-0.422 0.196-0.422 0.422 0 0.235 0.188 0.422 0.422 0.422s0.422-0.188 0.422-0.422c0-0.235-0.188-0.422-0.422-0.422zM18.304 8.055c-0.243 0-0.422 0.196-0.422 0.422 0 0.235 0.188 0.422 0.422 0.422s0.422-0.188 0.422-0.422c0-0.235-0.188-0.422-0.422-0.422zM15.179 8.055c-0.243 0-0.422 0.196-0.422 0.422 0 0.235 0.188 0.422 0.422 0.422s0.422-0.188 0.422-0.422c0-0.235-0.188-0.422-0.422-0.422zM10.485 8.055c-0.243 0-0.422 0.196-0.422 0.422 0 0.235 0.188 0.422 0.422 0.422s0.422-0.188 0.422-0.422c0-0.235-0.188-0.422-0.422-0.422zM19.618 17.459c0-1.553-1.259-2.812-2.814-2.812s-2.814 1.259-2.814 2.812c0 1.553 1.259 2.814 2.814 2.814s2.814-1.261 2.814-2.814zM16.864 20.823c-2.283 0-4.134 1.668-4.134 3.951l0.002 1.263h8.265v-1.263c0-2.283-1.85-3.951-4.132-3.951zM21.975 11.085v-5.12c0-0.352-0.288-0.64-0.64-0.64h-13.988c-0.352 0-0.64 0.288-0.64 0.64v5.12c0 0.352 0.288 0.64 0.64 0.64h6.921l1.737 1.737c0.062 0.062 0.143 0.094 0.226 0.094 0.055 0 0.111-0.015 0.16-0.043 0.126-0.073 0.186-0.222 0.147-0.361l-0.39-1.427h5.184c0.356 0 0.644-0.288 0.644-0.64zM15.311 11.085l0.175 0.64 0.117 0.431-1.071-1.071h-7.185v-5.12h13.986v5.12h-6.022zM13.611 8.055c-0.243 0-0.422 0.196-0.422 0.422 0 0.235 0.188 0.422 0.422 0.422s0.422-0.188 0.422-0.422c0-0.235-0.188-0.422-0.422-0.422zM12.047 8.055c-0.243 0-0.422 0.196-0.422 0.422 0 0.235 0.188 0.422 0.422 0.422s0.422-0.188 0.422-0.422c0-0.235-0.188-0.422-0.422-0.422zM27.266 20.448h-5.342c-0.13 0-0.245 0.079-0.297 0.198-0.049 0.119-0.021 0.258 0.070 0.348l1.502 1.502c0.062 0.062 0.145 0.094 0.226 0.094s0.164-0.032 0.226-0.094c0.126-0.126 0.126-0.329 0-0.452l-0.956-0.956h4.57c0.177 0 0.32-0.143 0.32-0.32s-0.143-0.32-0.32-0.32zM37.018 8.055c-0.235 0-0.422 0.188-0.422 0.422s0.188 0.422 0.422 0.422 0.422-0.188 0.422-0.422c0-0.224-0.177-0.422-0.422-0.422zM35.456 8.055c-0.235 0-0.422 0.188-0.422 0.422s0.188 0.422 0.422 0.422c0.235 0 0.422-0.188 0.422-0.422 0-0.224-0.179-0.422-0.422-0.422zM41.717 5.325h-13.988c-0.352 0-0.64 0.288-0.64 0.64v5.12c0 0.352 0.288 0.64 0.64 0.64h5.184l-0.39 1.427c-0.038 0.141 0.021 0.288 0.147 0.361 0.051 0.030 0.107 0.043 0.16 0.043 0.083 0 0.164-0.032 0.226-0.094l1.737-1.737h6.921c0.352 0 0.64-0.288 0.64-0.64v-5.12c0.004-0.354-0.282-0.64-0.636-0.64zM34.532 11.085l-1.071 1.071 0.117-0.431 0.175-0.64h-6.025v-5.12h13.988v5.12h-7.185zM38.581 8.055c-0.235 0-0.422 0.188-0.422 0.422s0.188 0.422 0.422 0.422 0.422-0.188 0.422-0.422c0-0.224-0.179-0.422-0.422-0.422zM33.888 8.055c-0.235 0-0.422 0.188-0.422 0.422s0.188 0.422 0.422 0.422 0.422-0.188 0.422-0.422c0-0.224-0.179-0.422-0.422-0.422zM30.763 8.055c-0.235 0-0.422 0.188-0.422 0.422s0.188 0.422 0.422 0.422c0.235 0 0.422-0.188 0.422-0.422 0-0.224-0.179-0.422-0.422-0.422zM32.203 20.823c-2.283 0-4.132 1.668-4.132 3.951v1.263h8.265l0.002-1.263c0-2.283-1.852-3.951-4.134-3.951zM35.074 17.459c0-1.553-1.259-2.812-2.814-2.812-1.553 0-2.814 1.259-2.814 2.812s1.259 2.814 2.814 2.814c1.553 0 2.814-1.261 2.814-2.814zM21.924 19.746h5.342c0.13 0 0.245-0.079 0.297-0.198 0.049-0.119 0.021-0.258-0.070-0.348l-1.502-1.502c-0.126-0.126-0.329-0.126-0.452 0s-0.126 0.329 0 0.452l0.956 0.956h-4.57c-0.177 0-0.32 0.143-0.32 0.32s0.143 0.32 0.32 0.32zM32.324 8.055c-0.235 0-0.422 0.188-0.422 0.422s0.188 0.422 0.422 0.422 0.422-0.188 0.422-0.422c0-0.224-0.177-0.422-0.422-0.422z"></path>
</symbol>
<symbol id="wm_smm" viewBox="0 0 50 32">
<title>smm</title>
<path d="M23.255 16.866h-1.103v1.103h1.103v-1.103zM23.255 19.072h-1.103v1.103h1.103v-1.103zM25.461 23.486h-1.103v1.103h1.103v-1.103zM23.255 14.658h-1.103v1.103h1.103v-1.103zM25.461 14.658h-1.103v1.103h1.103v-1.103zM23.255 21.28h-1.103v1.103h1.103v-1.103zM11.657 5.122c-3.292 0-5.963 1.818-5.963 4.062 0 2.242 2.669 4.060 5.963 4.060 0.879 0 1.711-0.13 2.462-0.363l2.347 1.199-1.071-1.734c1.355-0.745 2.223-1.884 2.223-3.162 0-2.242-2.669-4.062-5.961-4.062zM13.967 10.793c0 0.346-0.279 0.625-0.625 0.625h-0.994l0.002-1.655h0.572c0.051 0 0.094-0.038 0.1-0.090l0.064-0.533c0.006-0.060-0.041-0.113-0.1-0.113h-0.638v-0.446c0-0.203 0.055-0.341 0.348-0.341h0.269c0.055 0 0.102-0.045 0.102-0.102v-0.45c0-0.055-0.045-0.1-0.102-0.1h-0.437c-0.533 0-0.9 0.326-0.9 0.924v0.516h-0.429c-0.055 0-0.102 0.045-0.102 0.102l0.002 0.533c0 0.055 0.045 0.1 0.102 0.1h0.431l-0.002 1.655h-1.67c-0.346 0-0.625-0.279-0.625-0.625v-3.386c0-0.346 0.279-0.625 0.625-0.625h3.386c0.346 0 0.625 0.279 0.625 0.625v3.386zM25.461 21.28h-1.103v1.103h1.103v-1.103zM25.461 16.866h-1.103v1.103h1.103v-1.103zM25.461 19.072h-1.103v1.103h1.103v-1.103zM29.6 21.28h-1.103v1.103h1.103v-1.103zM29.6 23.486h-1.103v1.103h1.103v-1.103zM37.41 9.105c-3.292 0-5.963 1.818-5.963 4.062 0 1.278 0.868 2.417 2.223 3.162l-1.071 1.734 2.347-1.199c0.751 0.233 1.585 0.363 2.462 0.363 3.292 0 5.963-1.818 5.963-4.060 0.002-2.242-2.667-4.062-5.961-4.062zM39.486 12.147c0.002 0.045 0.002 0.090 0.002 0.134 0 1.376-1.047 2.963-2.963 2.963-0.589 0-1.135-0.173-1.596-0.467 0.081 0.011 0.164 0.015 0.247 0.015 0.489 0 0.937-0.166 1.293-0.446-0.457-0.009-0.841-0.309-0.973-0.723 0.064 0.013 0.128 0.019 0.196 0.019 0.096 0 0.188-0.013 0.275-0.036-0.476-0.096-0.836-0.516-0.836-1.022 0-0.004 0-0.009 0-0.013 0.141 0.079 0.301 0.124 0.471 0.13-0.279-0.188-0.463-0.506-0.463-0.866 0-0.19 0.051-0.369 0.141-0.523 0.514 0.629 1.28 1.043 2.146 1.088-0.017-0.077-0.028-0.156-0.028-0.237 0-0.576 0.467-1.041 1.041-1.041 0.299 0 0.57 0.126 0.759 0.329 0.237-0.047 0.461-0.134 0.661-0.254-0.079 0.243-0.243 0.448-0.459 0.576 0.211-0.026 0.412-0.081 0.597-0.164-0.134 0.207-0.311 0.39-0.514 0.538zM23.255 23.486h-1.103v1.103h1.103v-1.103zM31.219 16.638h-4.017v-4.267c0-0.177-0.143-0.32-0.32-0.32h-8.356c-0.177 0-0.32 0.143-0.32 0.32v14.507c0 0.177 0.143 0.32 0.32 0.32h12.693c0.177 0 0.32-0.143 0.32-0.32v-9.92c0-0.177-0.143-0.32-0.32-0.32zM26.562 26.558h-2.756v-0.791h-2.202v0.791h-2.758v-13.867h7.716v13.867zM30.899 26.558h-0.759v-0.798h-2.202v0.798h-0.736v-9.28h3.697v9.28zM29.6 19.072h-1.103v1.103h1.103v-1.103zM21.047 14.658h-1.103v1.103h1.103v-1.103zM21.047 16.866h-1.103v1.103h1.103v-1.103zM21.047 23.486h-1.103v1.103h1.103v-1.103zM21.047 19.072h-1.103v1.103h1.103v-1.103zM21.047 21.28h-1.103v1.103h1.103v-1.103z"></path>
</symbol>
<symbol id="wm_sns" viewBox="0 0 50 32">
<title>sns</title>
<path d="M17.557 10.046h-1.124c-0.151 0-0.275 0.124-0.275 0.275v3.296c0 0.151 0.124 0.275 0.275 0.275h1.124c0.151 0 0.275-0.124 0.275-0.275v-3.296c0-0.151-0.124-0.275-0.275-0.275zM22.453 12.469v-0.021c0-0.211-0.134-0.393-0.322-0.463 0.252-0.021 0.45-0.235 0.45-0.493v-0.021c0-0.209-0.13-0.386-0.311-0.459 0.211-0.055 0.367-0.247 0.367-0.478v-0.021c0-0.273-0.222-0.493-0.493-0.493h-1.83c0.164-0.282 0.442-0.821 0.516-1.378 0.111-0.809-0.275-1.067-0.644-1.086s-0.386 0.386-0.386 0.386 0.075 0.608-0.128 0.828c-0.203 0.222-1.344 1.289-1.344 1.73s0 3.147 0 3.147-0.019 0.286 0.286 0.286h0.86c0.023 0.002 0.045 0.004 0.068 0.004h2.251c0.273 0 0.493-0.222 0.493-0.493v-0.021c0-0.211-0.132-0.39-0.318-0.461 0.271-0.006 0.486-0.224 0.486-0.493zM31.84 17.005c-1.63-0.465-2.155 0.875-2.155 0.875s-0.525-1.34-2.155-0.875c-0.826 0.237-1.547 1.321-1.047 2.562 0.484 1.21 2.037 2.387 3.202 3.317 1.165-0.932 2.718-2.108 3.202-3.317 0.497-1.244-0.222-2.327-1.047-2.562zM38.462 19.533c0-3.33-3.908-6.039-8.715-6.039-0.855 0-1.683 0.087-2.466 0.247 0.482-0.749 0.753-1.579 0.753-2.451 0-3.33-3.91-6.039-8.715-6.039s-8.715 2.709-8.715 6.039c0 1.818 1.167 3.45 3.008 4.557l-1.34 2.167c-0.075 0.122-0.060 0.279 0.036 0.384 0.062 0.068 0.147 0.102 0.235 0.102 0.049 0 0.1-0.011 0.145-0.034l3.194-1.63c1.054 0.314 2.214 0.489 3.433 0.489 0.858 0 1.683-0.087 2.466-0.247-0.482 0.751-0.753 1.579-0.753 2.453 0 3.328 3.908 6.037 8.715 6.037 1.218 0 2.379-0.175 3.433-0.489l3.194 1.63c0.047 0.023 0.096 0.034 0.145 0.034 0.087 0 0.173-0.036 0.235-0.102 0.098-0.105 0.113-0.262 0.036-0.384l-1.34-2.167c1.847-1.107 3.017-2.739 3.017-4.557zM19.319 16.689c-0.937 0-1.837-0.109-2.675-0.305-0.128-0.030-0.254-0.062-0.378-0.096-0.151-0.041-0.301-0.085-0.446-0.132l-0.395 0.201-2.005 1.024 0.917-1.487 0.169-0.271c-0.096-0.049-0.192-0.098-0.284-0.149-0.094-0.051-0.188-0.105-0.277-0.16-1.655-0.99-2.699-2.426-2.699-4.023 0-2.976 3.622-5.399 8.075-5.399s8.075 2.421 8.075 5.399c0 0.979-0.395 1.899-1.082 2.692-1.606 0.478-2.961 1.284-3.9 2.291-0.954 0.269-1.999 0.416-3.095 0.416zM35.123 23.556c-0.092 0.053-0.183 0.107-0.277 0.16-0.094 0.051-0.188 0.1-0.284 0.149l0.166 0.271 0.164 0.267 0.753 1.22-2.4-1.225c-0.145 0.047-0.294 0.090-0.446 0.132-0.124 0.034-0.252 0.066-0.378 0.096-0.838 0.196-1.739 0.305-2.675 0.305-4.452 0-8.075-2.421-8.075-5.397 0-0.981 0.395-1.901 1.082-2.694 0.147-0.169 0.305-0.333 0.476-0.489 0.727-0.663 1.675-1.212 2.769-1.598 0.213-0.075 0.431-0.143 0.653-0.207 0.954-0.265 1.999-0.414 3.093-0.414 4.452 0 8.075 2.421 8.075 5.399 0.002 1.598-1.043 3.034-2.697 4.023z"></path>
</symbol>
</defs>
</svg>
